{"tracks": {"href": "https://api.spotify.com/v1/search?query=rockefeller+street&type=track&market=PL&offset=0&limit=1", "items": [{"album": {"album_type": "single", "artists": [{"external_urls": {"spotify": "https://open.spotify.com/artist/10pMyCRhDkBpyuc38QOlKf"}, "href": "https://api.spotify.com/v1/artists/10pMyCRhDkBpyuc38QOlKf", "id": "10pMyCRhDkBpyuc38QOlKf", "name": "Getter Jaani", "type": "artist", "uri": "spotify:artist:10pMyCRhDkBpyuc38QOlKf"}], "external_urls": {"spotify": "https://open.spotify.com/album/4Prlk6ouh6SYDOa97Eyly4"}, "href": "https://api.spotify.com/v1/albums/4Prlk6ouh6SYDOa97Eyly4", "id": "4Prlk6ouh6SYDOa97Eyly4", "images": [{"height": 640, "url": "https://i.scdn.co/image/5f59379ce2110dec2e58ac1935e7ef11bec58475", "width": 640}, {"height": 300, "url": "https://i.scdn.co/image/3447ec453693aa6115f1977ae1dcf6b36217e313", "width": 300}, {"height": 64, "url": "https://i.scdn.co/image/e263519a09eafcb3ffbfc3ba74fa6d121b04e9dc", "width": 64}], "name": "Rockefeller Street - Single", "release_date": "2011-01-24", "release_date_precision": "day", "total_tracks": 1, "type": "album", "uri": "spotify:album:4Prlk6ouh6SYDOa97Eyly4"}, "artists": [{"external_urls": {"spotify": "https://open.spotify.com/artist/10pMyCRhDkBpyuc38QOlKf"}, "href": "https://api.spotify.com/v1/artists/10pMyCRhDkBpyuc38QOlKf", "id": "10pMyCRhDkBpyuc38QOlKf", "name": "Getter Jaani", "type": "artist", "uri": "spotify:artist:10pMyCRhDkBpyuc38QOlKf"}], "disc_number": 1, "duration_ms": 192992, "explicit": false, "external_ids": {"isrc": "TCAAU1155719"}, "external_urls": {"spotify": "https://open.spotify.com/track/4rvFyA7h88s8DehCOjqW9K"}, "href": "https://api.spotify.com/v1/tracks/4rvFyA7h88s8DehCOjqW9K", "id": "4rvFyA7h88s8DehCOjqW9K", "is_local": false, "is_playable": true, "name": "Rockefeller Street", "popularity": 52, "preview_url": "https://p.scdn.co/mp3-preview/b11a32b70929829c4b1bf43f0ece031124e0ea79?cid=d3df69ad53ad4fe0afe621a68a2e852b", "track_number": 1, "type": "track", "uri": "spotify:track:4rvFyA7h88s8DehCOjqW9K"}], "limit": 1, "next": "https://api.spotify.com/v1/search?query=rockefeller+street&type=track&market=PL&offset=1&limit=1", "offset": 0, "previous": null, "total": 23}}