{"tracks": {"href": "https://api.spotify.com/v1/search?query=pop%2Fstars&type=track&market=PL&offset=0&limit=1", "items": [{"album": {"album_type": "single", "artists": [{"external_urls": {"spotify": "https://open.spotify.com/artist/4gOc8TsQed9eqnqJct2c5v"}, "href": "https://api.spotify.com/v1/artists/4gOc8TsQed9eqnqJct2c5v", "id": "4gOc8TsQed9eqnqJct2c5v", "name": "K/DA", "type": "artist", "uri": "spotify:artist:4gOc8TsQed9eqnqJct2c5v"}, {"external_urls": {"spotify": "https://open.spotify.com/artist/2kRfqPViCqYdSGhYSM9R0Q"}, "href": "https://api.spotify.com/v1/artists/2kRfqPViCqYdSGhYSM9R0Q", "id": "2kRfqPViCqYdSGhYSM9R0Q", "name": "Madison Beer", "type": "artist", "uri": "spotify:artist:2kRfqPViCqYdSGhYSM9R0Q"}, {"external_urls": {"spotify": "https://open.spotify.com/artist/2AfmfGFbe0A0WsTYm0SDTx"}, "href": "https://api.spotify.com/v1/artists/2AfmfGFbe0A0WsTYm0SDTx", "id": "2AfmfGFbe0A0WsTYm0SDTx", "name": "(G)I-DLE", "type": "artist", "uri": "spotify:artist:2AfmfGFbe0A0WsTYm0SDTx"}], "external_urls": {"spotify": "https://open.spotify.com/album/0UnBZ8laFgLUq5Ty5vbikQ"}, "href": "https://api.spotify.com/v1/albums/0UnBZ8laFgLUq5Ty5vbikQ", "id": "0UnBZ8laFgLUq5Ty5vbikQ", "images": [{"height": 640, "url": "https://i.scdn.co/image/bee679faf04ebe0a7b313e331f1794f60073b860", "width": 640}, {"height": 300, "url": "https://i.scdn.co/image/4881105055bdf9ffe9dbb5ef50f75289dc290d6b", "width": 300}, {"height": 64, "url": "https://i.scdn.co/image/9d0b18f04243eccdc5565bf6fce3deab54ceba98", "width": 64}], "name": "POP/STARS", "release_date": "2018-11-03", "release_date_precision": "day", "total_tracks": 1, "type": "album", "uri": "spotify:album:0UnBZ8laFgLUq5Ty5vbikQ"}, "artists": [{"external_urls": {"spotify": "https://open.spotify.com/artist/4gOc8TsQed9eqnqJct2c5v"}, "href": "https://api.spotify.com/v1/artists/4gOc8TsQed9eqnqJct2c5v", "id": "4gOc8TsQed9eqnqJct2c5v", "name": "K/DA", "type": "artist", "uri": "spotify:artist:4gOc8TsQed9eqnqJct2c5v"}, {"external_urls": {"spotify": "https://open.spotify.com/artist/2kRfqPViCqYdSGhYSM9R0Q"}, "href": "https://api.spotify.com/v1/artists/2kRfqPViCqYdSGhYSM9R0Q", "id": "2kRfqPViCqYdSGhYSM9R0Q", "name": "Madison Beer", "type": "artist", "uri": "spotify:artist:2kRfqPViCqYdSGhYSM9R0Q"}, {"external_urls": {"spotify": "https://open.spotify.com/artist/2AfmfGFbe0A0WsTYm0SDTx"}, "href": "https://api.spotify.com/v1/artists/2AfmfGFbe0A0WsTYm0SDTx", "id": "2AfmfGFbe0A0WsTYm0SDTx", "name": "(G)I-DLE", "type": "artist", "uri": "spotify:artist:2AfmfGFbe0A0WsTYm0SDTx"}, {"external_urls": {"spotify": "https://open.spotify.com/artist/0tRFWXqKBBQcu5oFVOgVzX"}, "href": "https://api.spotify.com/v1/artists/0tRFWXqKBBQcu5oFVOgVzX", "id": "0tRFWXqKBBQcu5oFVOgVzX", "name": "Jaira Burns", "type": "artist", "uri": "spotify:artist:0tRFWXqKBBQcu5oFVOgVzX"}, {"external_urls": {"spotify": "https://open.spotify.com/artist/47mIJdHORyRerp4os813jD"}, "href": "https://api.spotify.com/v1/artists/47mIJdHORyRerp4os813jD", "id": "47mIJdHORyRerp4os813jD", "name": "League of Legends", "type": "artist", "uri": "spotify:artist:47mIJdHORyRerp4os813jD"}], "disc_number": 1, "duration_ms": 191100, "explicit": false, "external_ids": {"isrc": "NLRD51859885"}, "external_urls": {"spotify": "https://open.spotify.com/track/5sbooPcNgIE22DwO0VNGUJ"}, "href": "https://api.spotify.com/v1/tracks/5sbooPcNgIE22DwO0VNGUJ", "id": "5sbooPcNgIE22DwO0VNGUJ", "is_local": false, "is_playable": true, "name": "POP/STARS", "popularity": 86, "preview_url": "https://p.scdn.co/mp3-preview/c8c6086726d7cac2697ac2f2b67089b83437368c?cid=d3df69ad53ad4fe0afe621a68a2e852b", "track_number": 1, "type": "track", "uri": "spotify:track:5sbooPcNgIE22DwO0VNGUJ"}], "limit": 1, "next": "https://api.spotify.com/v1/search?query=pop%2Fstars&type=track&market=PL&offset=1&limit=1", "offset": 0, "previous": null, "total": 8174}}