{"tracks": {"href": "https://api.spotify.com/v1/search?query=the+elevator+bossa+nova&type=track&market=PL&offset=0&limit=1", "items": [{"album": {"album_type": "single", "artists": [{"external_urls": {"spotify": "https://open.spotify.com/artist/6yScCtTiWleRemrkh4wPmR"}, "href": "https://api.spotify.com/v1/artists/6yScCtTiWleRemrkh4wPmR", "id": "6yScCtTiWleRemrkh4wPmR", "name": "Bensound", "type": "artist", "uri": "spotify:artist:6yScCtTiWleRemrkh4wPmR"}], "external_urls": {"spotify": "https://open.spotify.com/album/5tnsmM9OV30kq7utCmyjZM"}, "href": "https://api.spotify.com/v1/albums/5tnsmM9OV30kq7utCmyjZM", "id": "5tnsmM9OV30kq7utCmyjZM", "images": [{"height": 640, "url": "https://i.scdn.co/image/a79ad17780e0b2ab0ca87bfe359a232b8ace5947", "width": 640}, {"height": 300, "url": "https://i.scdn.co/image/4c987379280b910e31eef923964f274eed7841ec", "width": 300}, {"height": 64, "url": "https://i.scdn.co/image/9c567fa2e1485c4915e42b3e0d3f2b8b7de52597", "width": 64}], "name": "The Elevator Bossa Nova", "release_date": "2008-04-30", "release_date_precision": "day", "total_tracks": 1, "type": "album", "uri": "spotify:album:5tnsmM9OV30kq7utCmyjZM"}, "artists": [{"external_urls": {"spotify": "https://open.spotify.com/artist/6yScCtTiWleRemrkh4wPmR"}, "href": "https://api.spotify.com/v1/artists/6yScCtTiWleRemrkh4wPmR", "id": "6yScCtTiWleRemrkh4wPmR", "name": "Bensound", "type": "artist", "uri": "spotify:artist:6yScCtTiWleRemrkh4wPmR"}], "disc_number": 1, "duration_ms": 254798, "explicit": false, "external_ids": {"isrc": "QZCE61878786"}, "external_urls": {"spotify": "https://open.spotify.com/track/3o31P310cbEcnnGpxMHh2B"}, "href": "https://api.spotify.com/v1/tracks/3o31P310cbEcnnGpxMHh2B", "id": "3o31P310cbEcnnGpxMHh2B", "is_local": false, "is_playable": true, "name": "The Elevator Bossa Nova", "popularity": 6, "preview_url": "https://p.scdn.co/mp3-preview/2ca6207c8d22886ecfc80ebf8a14b057da505792?cid=d3df69ad53ad4fe0afe621a68a2e852b", "track_number": 1, "type": "track", "uri": "spotify:track:3o31P310cbEcnnGpxMHh2B"}], "limit": 1, "next": "https://api.spotify.com/v1/search?query=the+elevator+bossa+nova&type=track&market=PL&offset=1&limit=1", "offset": 0, "previous": null, "total": 13}}